%YAML 1.1
%TAG !u! tag:unity3d.com,2011:
--- !u!1 &4336530021286216444
GameObject:
  m_ObjectHideFlags: 0
  m_CorrespondingSourceObject: {fileID: 0}
  m_PrefabInstance: {fileID: 0}
  m_PrefabAsset: {fileID: 0}
  serializedVersion: 6
  m_Component:
  - component: {fileID: 1031326072964847340}
  m_Layer: 0
  m_Name: LeftHand
  m_TagString: Untagged
  m_Icon: {fileID: 0}
  m_NavMeshLayer: 0
  m_StaticEditorFlags: 0
  m_IsActive: 1
--- !u!4 &1031326072964847340
Transform:
  m_ObjectHideFlags: 0
  m_CorrespondingSourceObject: {fileID: 0}
  m_PrefabInstance: {fileID: 0}
  m_PrefabAsset: {fileID: 0}
  m_GameObject: {fileID: 4336530021286216444}
  m_LocalRotation: {x: 0, y: 0, z: 0, w: 1}
  m_LocalPosition: {x: 0, y: 0, z: 0}
  m_LocalScale: {x: 1, y: 1, z: 1}
  m_Children:
  - {fileID: 2910200769352857295}
  m_Father: {fileID: 0}
  m_RootOrder: 0
  m_LocalEulerAnglesHint: {x: 0, y: 0, z: 0}
--- !u!1001 &4801097119754412741
PrefabInstance:
  m_ObjectHideFlags: 0
  serializedVersion: 2
  m_Modification:
    m_TransformParent: {fileID: 1031326072964847340}
    m_Modifications:
    - target: {fileID: 7027903392671649456, guid: d266c52e61afbdb4b8a91160b6bd4d55,
        type: 3}
      propertyPath: m_Name
      value: Sabie1
      objectReference: {fileID: 0}
    - target: {fileID: 7693256793010770954, guid: d266c52e61afbdb4b8a91160b6bd4d55,
        type: 3}
      propertyPath: m_RootOrder
      value: 0
      objectReference: {fileID: 0}
    - target: {fileID: 7693256793010770954, guid: d266c52e61afbdb4b8a91160b6bd4d55,
        type: 3}
      propertyPath: m_LocalPosition.x
      value: 20.622
      objectReference: {fileID: 0}
    - target: {fileID: 7693256793010770954, guid: d266c52e61afbdb4b8a91160b6bd4d55,
        type: 3}
      propertyPath: m_LocalPosition.y
      value: 7.1
      objectReference: {fileID: 0}
    - target: {fileID: 7693256793010770954, guid: d266c52e61afbdb4b8a91160b6bd4d55,
        type: 3}
      propertyPath: m_LocalPosition.z
      value: -1.77
      objectReference: {fileID: 0}
    - target: {fileID: 7693256793010770954, guid: d266c52e61afbdb4b8a91160b6bd4d55,
        type: 3}
      propertyPath: m_LocalRotation.w
      value: 0.83022517
      objectReference: {fileID: 0}
    - target: {fileID: 7693256793010770954, guid: d266c52e61afbdb4b8a91160b6bd4d55,
        type: 3}
      propertyPath: m_LocalRotation.x
      value: -0.23762761
      objectReference: {fileID: 0}
    - target: {fileID: 7693256793010770954, guid: d266c52e61afbdb4b8a91160b6bd4d55,
        type: 3}
      propertyPath: m_LocalRotation.y
      value: -0.50382954
      objectReference: {fileID: 0}
    - target: {fileID: 7693256793010770954, guid: d266c52e61afbdb4b8a91160b6bd4d55,
        type: 3}
      propertyPath: m_LocalRotation.z
      value: -0.020374665
      objectReference: {fileID: 0}
    - target: {fileID: 7693256793010770954, guid: d266c52e61afbdb4b8a91160b6bd4d55,
        type: 3}
      propertyPath: m_LocalEulerAnglesHint.x
      value: -24.526
      objectReference: {fileID: 0}
    - target: {fileID: 7693256793010770954, guid: d266c52e61afbdb4b8a91160b6bd4d55,
        type: 3}
      propertyPath: m_LocalEulerAnglesHint.y
      value: -65.355
      objectReference: {fileID: 0}
    - target: {fileID: 7693256793010770954, guid: d266c52e61afbdb4b8a91160b6bd4d55,
        type: 3}
      propertyPath: m_LocalEulerAnglesHint.z
      value: 13.062
      objectReference: {fileID: 0}
    m_RemovedComponents: []
  m_SourcePrefab: {fileID: 100100000, guid: d266c52e61afbdb4b8a91160b6bd4d55, type: 3}
--- !u!4 &2910200769352857295 stripped
Transform:
  m_CorrespondingSourceObject: {fileID: 7693256793010770954, guid: d266c52e61afbdb4b8a91160b6bd4d55,
    type: 3}
  m_PrefabInstance: {fileID: 4801097119754412741}
  m_PrefabAsset: {fileID: 0}
